-8 -16 -24 -32 -40 -48 -56 -64 -72 560
992
992
992
-96 -16 -48 24 -8 760
-8 -320 -320 144 -8 152
-8 -8 -8 -24 8 -64 -48 -32 -40 680
-8 -8 -8 -8 -8 -8 -8 -8 -8 -8 -8 -8 -8 -8 -8 -8 -8 -8 704
-8 -16 -8 -8 920
-992
